…
```r
# Summarizing total acres a fire spanned and number of structures destroyed in year
ca_fires %>%
  group_by(year_) %>%
  summarize(total_acres = sum(gis_acres, na.rm = TRUE)) %>%
  left_join(ca_damage, by = c("year_" = "year")) %>%
  arrange(desc(year_))
```

```
## # A tibble: 68 x 3
##    year_ total_acres structures
##    <dbl>       <dbl>      <dbl>
##  1  2017    1424768.      10823
##  2  2016     545985.       1219
##  3  2015     789206.       3097
##  4  2014     570895.        434
##  5  2013     569820.        495
##  6  2012     847715.        205
##  7  2011     202427.        132
##  8  2010     101474.         64
##  9  2009     435840.        123
## 10  2008    1382462.       1122
## # … with 58 more rows
```
…
